{
  "TransactionDetail": [
    {
      "AccrualPoints": null,
      "RedemptionPoints": "2800",
      "Transactiontype": "Redemption",
      "TransactionDate": "2015-11-25T12:57:32Z"
    },
    {
      "AccrualPoints": "16",
      "RedemptionPoints": null,
      "Transactiontype": "Accrual",
      "TransactionDate": "2015-11-27T12:14:49Z"
    },
    {
      "AccrualPoints": "0",
      "RedemptionPoints": null,
      "Transactiontype": "Accrual",
      "TransactionDate": "2015-11-27T12:06:46Z"
    },
    {
      "AccrualPoints": "0",
      "RedemptionPoints": null,
      "Transactiontype": "Accrual",
      "TransactionDate": "2015-11-27T12:00:45Z"
    },
    {
      "AccrualPoints": "16",
      "RedemptionPoints": null,
      "Transactiontype": "Accrual",
      "TransactionDate": "2015-11-27T12:59:00Z"
    },
    {
      "AccrualPoints": "20",
      "RedemptionPoints": null,
      "Transactiontype": "Accrual",
      "TransactionDate": "2015-11-30T10:50:47Z"
    },
    {
      "AccrualPoints": "20",
      "RedemptionPoints": null,
      "Transactiontype": "Accrual",
      "TransactionDate": "2015-11-30T11:15:36Z"
    },
    {
      "AccrualPoints": "20",
      "RedemptionPoints": null,
      "Transactiontype": "Accrual",
      "TransactionDate": "2015-11-30T07:14:08Z"
    },
    {
      "AccrualPoints": "20",
      "RedemptionPoints": null,
      "Transactiontype": "Accrual",
      "TransactionDate": "2015-11-30T09:54:36Z"
    },
    {
      "AccrualPoints": "20",
      "RedemptionPoints": null,
      "Transactiontype": "Accrual",
      "TransactionDate": "2015-11-30T10:54:28Z"
    },
    {
      "AccrualPoints": "20",
      "RedemptionPoints": null,
      "Transactiontype": "Accrual",
      "TransactionDate": "2015-11-30T10:55:18Z"
    },
    {
      "AccrualPoints": "20",
      "RedemptionPoints": null,
      "Transactiontype": "Accrual",
      "TransactionDate": "2015-11-30T10:56:40Z"
    },
    {
      "AccrualPoints": "20",
      "RedemptionPoints": null,
      "Transactiontype": "Accrual",
      "TransactionDate": "2015-11-30T11:05:56Z"
    },
    {
      "AccrualPoints": "20",
      "RedemptionPoints": null,
      "Transactiontype": "Accrual",
      "TransactionDate": "2015-11-30T11:17:58Z"
    },
    {
      "AccrualPoints": "20",
      "RedemptionPoints": null,
      "Transactiontype": "Accrual",
      "TransactionDate": "2015-11-30T10:52:05Z"
    },
    {
      "AccrualPoints": "16",
      "RedemptionPoints": null,
      "Transactiontype": "Accrual",
      "TransactionDate": "2015-11-30T06:55:35Z"
    },
    {
      "AccrualPoints": "20",
      "RedemptionPoints": null,
      "Transactiontype": "Accrual",
      "TransactionDate": "2015-11-30T11:09:05Z"
    },
    {
      "AccrualPoints": "20",
      "RedemptionPoints": null,
      "Transactiontype": "Accrual",
      "TransactionDate": "2015-12-01T13:35:33Z"
    },
    {
      "AccrualPoints": "8",
      "RedemptionPoints": null,
      "Transactiontype": "Accrual",
      "TransactionDate": "2015-12-03T13:41:43Z"
    },
    {
      "AccrualPoints": "12",
      "RedemptionPoints": null,
      "Transactiontype": "Accrual",
      "TransactionDate": "2015-12-03T13:51:14Z"
    },
    {
      "AccrualPoints": null,
      "RedemptionPoints": "80",
      "Transactiontype": "Redemption",
      "TransactionDate": "2015-12-03T09:33:55Z"
    },
    {
      "AccrualPoints": null,
      "RedemptionPoints": "80",
      "Transactiontype": "Redemption",
      "TransactionDate": "2015-12-03T09:35:03Z"
    },
    {
      "AccrualPoints": "44",
      "RedemptionPoints": null,
      "Transactiontype": "Accrual",
      "TransactionDate": "2015-12-03T14:21:27Z"
    },
    {
      "AccrualPoints": null,
      "RedemptionPoints": "80",
      "Transactiontype": "Redemption",
      "TransactionDate": "2015-12-03T08:02:24Z"
    },
    {
      "AccrualPoints": "8",
      "RedemptionPoints": null,
      "Transactiontype": "Accrual",
      "TransactionDate": "2015-12-03T13:38:54Z"
    },
    {
      "AccrualPoints": "12",
      "RedemptionPoints": null,
      "Transactiontype": "Accrual",
      "TransactionDate": "2015-12-03T13:53:47Z"
    },
    {
      "AccrualPoints": "20",
      "RedemptionPoints": null,
      "Transactiontype": "Accrual",
      "TransactionDate": "2015-12-03T14:07:28Z"
    },
    {
      "AccrualPoints": "12",
      "RedemptionPoints": null,
      "Transactiontype": "Accrual",
      "TransactionDate": "2015-12-03T14:28:36Z"
    },
    {
      "AccrualPoints": null,
      "RedemptionPoints": "200",
      "Transactiontype": "Redemption",
      "TransactionDate": "2015-12-07T09:42:16Z"
    },
    {
      "AccrualPoints": "80",
      "RedemptionPoints": null,
      "Transactiontype": "Accrual",
      "TransactionDate": "2015-12-07T10:12:03Z"
    },
    {
      "AccrualPoints": "80",
      "RedemptionPoints": null,
      "Transactiontype": "Accrual",
      "TransactionDate": "2015-12-07T09:57:49Z"
    },
    {
      "AccrualPoints": "80",
      "RedemptionPoints": null,
      "Transactiontype": "Accrual",
      "TransactionDate": "2015-12-07T09:58:24Z"
    },
    {
      "AccrualPoints": "80",
      "RedemptionPoints": null,
      "Transactiontype": "Accrual",
      "TransactionDate": "2015-12-07T09:58:51Z"
    },
    {
      "AccrualPoints": null,
      "RedemptionPoints": "250",
      "Transactiontype": "Redemption",
      "TransactionDate": "2015-12-07T07:44:51Z"
    },
    {
      "AccrualPoints": "80",
      "RedemptionPoints": null,
      "Transactiontype": "Accrual",
      "TransactionDate": "2015-12-07T09:35:21Z"
    },
    {
      "AccrualPoints": "80",
      "RedemptionPoints": null,
      "Transactiontype": "Accrual",
      "TransactionDate": "2015-12-07T09:37:26Z"
    },
    {
      "AccrualPoints": "80",
      "RedemptionPoints": null,
      "Transactiontype": "Accrual",
      "TransactionDate": "2015-12-07T09:39:30Z"
    }
  ],
  "TierPoint": "12",
  "ReedemptionPoint": "374"
}