{
  "@odata.context": "https://jdaretailmatedevret.cloudax.dynamics.com/Commerce/$metadata#Products",
  "value": [
    {
      "RecordId": 68719483121,
      "ProductName": "Martini Glass - Red Stem",
      "ProductNumber": "9727772798",
      "Description": "Martini Glass",
      "IsMasterProduct": false,
      "IsKit": false,
      "ItemId": "9727772798",
      "HasLinkedProducts": false,
      "Rules": {
        "HasLinkedProducts": false,
        "IsSerialized": false,
        "IsActiveInSalesProcess": false,
        "IsBlocked": false,
        "DateOfBlocking": "1900-01-01T00:00:00Z",
        "DateToActivate": "1900-01-01T00:00:00Z",
        "DateToBlock": "9999-12-31T23:59:59.9999999Z",
        "DefaultUnitOfMeasure": "ea",
        "PriceKeyingRequirementValue": 0,
        "QuantityKeyingRequirementValue": 0,
        "MustKeyInComment": false,
        "CanQuantityBecomeNegative": false,
        "MustScaleItem": false,
        "CanPriceBeZero": false,
        "ProductId": 68719483121,
        "ExtensionProperties": []
      },
      "DefaultUnitOfMeasure": null,
      "Name": null,
      "Locale": "en-us",
      "OfflineImage": "",
      "IsRemote": false,
      "ChangeTrackingInformation": {
        "ModifiedDateTime": "1901-01-01T00:00:00Z",
        "ChangeActionValue": 1,
        "RequestedActionValue": 1
      },
      "Image": {
        "Items": [
          {
            "Url": "Products/9727772798_000_001.png",
            "AltText": "",
            "IsSelfHosted": false,
            "IsDefault": false
          },
          {
            "Url": "Products/9727772798_000_002.png",
            "AltText": "",
            "IsSelfHosted": false,
            "IsDefault": false
          },
          {
            "Url": "Products/9727772798_000_003.png",
            "AltText": "",
            "IsSelfHosted": false,
            "IsDefault": false
          },
          {
            "Url": "Products/9727772798_000_004.png",
            "AltText": "",
            "IsSelfHosted": false,
            "IsDefault": false
          },
          {
            "Url": "Products/9727772798_000_005.png",
            "AltText": "",
            "IsSelfHosted": false,
            "IsDefault": false
          }
        ]
      },
      "UnitsOfMeasureSymbol": [],
      "LinkedProducts": [],
      "BasePrice": 17.99,
      "Price": 17.99,
      "AdjustedPrice": 17.99,
      "RetailContext": {
        "ChannelId": 68719476778,
        "CatalogId": 0
      },
      "PrimaryCategoryId": 0,
      "CategoryIds": [],
      "RelatedProducts": [],
      "ProductsRelatedToThis": [],
      "ProductSchema": [
        "Brand",
        "ItemNumber",
        "ProductName",
        "Description",
        "Features",
        "Specification",
        "Searchkeywords2",
        "SearchKeywords",
        "Image2",
        "Image"
      ],
      "ProductProperties": [
        {
          "TranslationLanguage": "en-us",
          "TranslatedProperties": [
            {
              "ValueString": "Arc International",
              "PropertyTypeValue": 5,
              "KeyName": "Brand",
              "FriendlyName": "Brand",
              "RecordId": 11290923677,
              "IsDimensionProperty": false,
              "AttributeValueId": 68719500947,
              "UnitText": null,
              "GroupId": 0,
              "GroupTypeValue": 0,
              "GroupName": "",
              "ExtensionProperties": [],
              "ProductId": 68719483121,
              "CatalogId": 0
            },
            {
              "ValueString": "9727772798",
              "PropertyTypeValue": 5,
              "KeyName": "ItemNumber",
              "FriendlyName": "Item number",
              "RecordId": 11290923665,
              "IsDimensionProperty": false,
              "AttributeValueId": 0,
              "UnitText": null,
              "GroupId": 0,
              "GroupTypeValue": 0,
              "GroupName": "",
              "ExtensionProperties": [],
              "ProductId": 68719483121,
              "CatalogId": 0
            },
            {
              "ValueString": "Martini Glass - Red Stem",
              "PropertyTypeValue": 5,
              "KeyName": "ProductName",
              "FriendlyName": "Product name",
              "RecordId": 11290923663,
              "IsDimensionProperty": false,
              "AttributeValueId": 0,
              "UnitText": null,
              "GroupId": 0,
              "GroupTypeValue": 0,
              "GroupName": "",
              "ExtensionProperties": [],
              "ProductId": 68719483121,
              "CatalogId": 0
            },
            {
              "ValueString": "Martini Glass",
              "PropertyTypeValue": 5,
              "KeyName": "Description",
              "FriendlyName": "Description",
              "RecordId": 11290923664,
              "IsDimensionProperty": false,
              "AttributeValueId": 0,
              "UnitText": null,
              "GroupId": 0,
              "GroupTypeValue": 0,
              "GroupName": "",
              "ExtensionProperties": [],
              "ProductId": 68719483121,
              "CatalogId": 0
            },
            {
              "ValueString": "Default",
              "PropertyTypeValue": 5,
              "KeyName": "Features",
              "FriendlyName": "Features",
              "RecordId": 11290923666,
              "IsDimensionProperty": false,
              "AttributeValueId": 41290974841,
              "UnitText": null,
              "GroupId": 0,
              "GroupTypeValue": 0,
              "GroupName": "",
              "ExtensionProperties": [],
              "ProductId": 0,
              "CatalogId": 0
            },
            {
              "ValueString": "Default",
              "PropertyTypeValue": 5,
              "KeyName": "Specification",
              "FriendlyName": "Specification",
              "RecordId": 11290923667,
              "IsDimensionProperty": false,
              "AttributeValueId": 41290974916,
              "UnitText": null,
              "GroupId": 0,
              "GroupTypeValue": 0,
              "GroupName": "",
              "ExtensionProperties": [],
              "ProductId": 0,
              "CatalogId": 0
            },
            {
              "ValueString": "Default",
              "PropertyTypeValue": 5,
              "KeyName": "Searchkeywords2",
              "FriendlyName": "Search keywords",
              "RecordId": 11290928323,
              "IsDimensionProperty": false,
              "AttributeValueId": 41290974912,
              "UnitText": null,
              "GroupId": 0,
              "GroupTypeValue": 0,
              "GroupName": "",
              "ExtensionProperties": [],
              "ProductId": 0,
              "CatalogId": 0
            },
            {
              "ValueString": "Default",
              "PropertyTypeValue": 5,
              "KeyName": "SearchKeywords",
              "FriendlyName": "Search keywords",
              "RecordId": 11290928324,
              "IsDimensionProperty": false,
              "AttributeValueId": 41290974912,
              "UnitText": null,
              "GroupId": 0,
              "GroupTypeValue": 0,
              "GroupName": "",
              "ExtensionProperties": [],
              "ProductId": 0,
              "CatalogId": 0
            },
            {
              "ValueString": "Microsoft.Dynamics.Commerce.Runtime.DataModel.RichMediaLocations",
              "PropertyTypeValue": 41,
              "KeyName": "Image2",
              "FriendlyName": "Image",
              "RecordId": 11290923653,
              "IsDimensionProperty": false,
              "AttributeValueId": 41290968079,
              "UnitText": null,
              "GroupId": 0,
              "GroupTypeValue": 0,
              "GroupName": "",
              "ExtensionProperties": [],
              "ProductId": 0,
              "CatalogId": 0
            },
            {
              "ValueString": "Microsoft.Dynamics.Commerce.Runtime.DataModel.RichMediaLocations",
              "PropertyTypeValue": 41,
              "KeyName": "Image",
              "FriendlyName": "Image",
              "RecordId": 11290923668,
              "IsDimensionProperty": false,
              "AttributeValueId": 41290968079,
              "UnitText": null,
              "GroupId": 0,
              "GroupTypeValue": 0,
              "GroupName": "",
              "ExtensionProperties": [],
              "ProductId": 0,
              "CatalogId": 0
            }
          ]
        }
      ],
      "CompositionInformation": null,
      "ParentKits": [],
      "SearchName": "MartiniGlassRedStem",
      "ExtensionProperties": []
    },
    {
      "RecordId": 68719483122,
      "ProductName": "Slate Cheese Board",
      "ProductNumber": "9727773914",
      "Description": "Slate Cheese Board",
      "IsMasterProduct": false,
      "IsKit": false,
      "ItemId": "9727773914",
      "HasLinkedProducts": false,
      "Rules": {
        "HasLinkedProducts": false,
        "IsSerialized": false,
        "IsActiveInSalesProcess": false,
        "IsBlocked": false,
        "DateOfBlocking": "1900-01-01T00:00:00Z",
        "DateToActivate": "1900-01-01T00:00:00Z",
        "DateToBlock": "9999-12-31T23:59:59.9999999Z",
        "DefaultUnitOfMeasure": "ea",
        "PriceKeyingRequirementValue": 0,
        "QuantityKeyingRequirementValue": 0,
        "MustKeyInComment": false,
        "CanQuantityBecomeNegative": false,
        "MustScaleItem": false,
        "CanPriceBeZero": false,
        "ProductId": 68719483122,
        "ExtensionProperties": []
      },
      "DefaultUnitOfMeasure": null,
      "Name": null,
      "Locale": "en-us",
      "OfflineImage": "",
      "IsRemote": false,
      "ChangeTrackingInformation": {
        "ModifiedDateTime": "1901-01-01T00:00:00Z",
        "ChangeActionValue": 1,
        "RequestedActionValue": 1
      },
      "Image": {
        "Items": [
          {
            "Url": "Products/9727773914_000_001.png",
            "AltText": "",
            "IsSelfHosted": false,
            "IsDefault": false
          },
          {
            "Url": "Products/9727773914_000_002.png",
            "AltText": "",
            "IsSelfHosted": false,
            "IsDefault": false
          },
          {
            "Url": "Products/9727773914_000_003.png",
            "AltText": "",
            "IsSelfHosted": false,
            "IsDefault": false
          },
          {
            "Url": "Products/9727773914_000_004.png",
            "AltText": "",
            "IsSelfHosted": false,
            "IsDefault": false
          },
          {
            "Url": "Products/9727773914_000_005.png",
            "AltText": "",
            "IsSelfHosted": false,
            "IsDefault": false
          }
        ]
      },
      "UnitsOfMeasureSymbol": [],
      "LinkedProducts": [],
      "BasePrice": 29.99,
      "Price": 29.99,
      "AdjustedPrice": 29.99,
      "RetailContext": {
        "ChannelId": 68719476778,
        "CatalogId": 0
      },
      "PrimaryCategoryId": 0,
      "CategoryIds": [],
      "RelatedProducts": [],
      "ProductsRelatedToThis": [],
      "ProductSchema": [
        "Brand",
        "ItemNumber",
        "ProductName",
        "Description",
        "Features",
        "Specification",
        "Searchkeywords2",
        "SearchKeywords",
        "Image2",
        "Image"
      ],
      "ProductProperties": [
        {
          "TranslationLanguage": "en-us",
          "TranslatedProperties": [
            {
              "ValueString": "Crate and barrel",
              "PropertyTypeValue": 5,
              "KeyName": "Brand",
              "FriendlyName": "Brand",
              "RecordId": 11290923677,
              "IsDimensionProperty": false,
              "AttributeValueId": 68719500949,
              "UnitText": null,
              "GroupId": 0,
              "GroupTypeValue": 0,
              "GroupName": "",
              "ExtensionProperties": [],
              "ProductId": 68719483122,
              "CatalogId": 0
            },
            {
              "ValueString": "9727773914",
              "PropertyTypeValue": 5,
              "KeyName": "ItemNumber",
              "FriendlyName": "Item number",
              "RecordId": 11290923665,
              "IsDimensionProperty": false,
              "AttributeValueId": 0,
              "UnitText": null,
              "GroupId": 0,
              "GroupTypeValue": 0,
              "GroupName": "",
              "ExtensionProperties": [],
              "ProductId": 68719483122,
              "CatalogId": 0
            },
            {
              "ValueString": "Slate Cheese Board",
              "PropertyTypeValue": 5,
              "KeyName": "ProductName",
              "FriendlyName": "Product name",
              "RecordId": 11290923663,
              "IsDimensionProperty": false,
              "AttributeValueId": 0,
              "UnitText": null,
              "GroupId": 0,
              "GroupTypeValue": 0,
              "GroupName": "",
              "ExtensionProperties": [],
              "ProductId": 68719483122,
              "CatalogId": 0
            },
            {
              "ValueString": "Slate Cheese Board",
              "PropertyTypeValue": 5,
              "KeyName": "Description",
              "FriendlyName": "Description",
              "RecordId": 11290923664,
              "IsDimensionProperty": false,
              "AttributeValueId": 0,
              "UnitText": null,
              "GroupId": 0,
              "GroupTypeValue": 0,
              "GroupName": "",
              "ExtensionProperties": [],
              "ProductId": 68719483122,
              "CatalogId": 0
            },
            {
              "ValueString": "Default",
              "PropertyTypeValue": 5,
              "KeyName": "Features",
              "FriendlyName": "Features",
              "RecordId": 11290923666,
              "IsDimensionProperty": false,
              "AttributeValueId": 41290974841,
              "UnitText": null,
              "GroupId": 0,
              "GroupTypeValue": 0,
              "GroupName": "",
              "ExtensionProperties": [],
              "ProductId": 0,
              "CatalogId": 0
            },
            {
              "ValueString": "Default",
              "PropertyTypeValue": 5,
              "KeyName": "Specification",
              "FriendlyName": "Specification",
              "RecordId": 11290923667,
              "IsDimensionProperty": false,
              "AttributeValueId": 41290974916,
              "UnitText": null,
              "GroupId": 0,
              "GroupTypeValue": 0,
              "GroupName": "",
              "ExtensionProperties": [],
              "ProductId": 0,
              "CatalogId": 0
            },
            {
              "ValueString": "Default",
              "PropertyTypeValue": 5,
              "KeyName": "Searchkeywords2",
              "FriendlyName": "Search keywords",
              "RecordId": 11290928323,
              "IsDimensionProperty": false,
              "AttributeValueId": 41290974912,
              "UnitText": null,
              "GroupId": 0,
              "GroupTypeValue": 0,
              "GroupName": "",
              "ExtensionProperties": [],
              "ProductId": 0,
              "CatalogId": 0
            },
            {
              "ValueString": "Default",
              "PropertyTypeValue": 5,
              "KeyName": "SearchKeywords",
              "FriendlyName": "Search keywords",
              "RecordId": 11290928324,
              "IsDimensionProperty": false,
              "AttributeValueId": 41290974912,
              "UnitText": null,
              "GroupId": 0,
              "GroupTypeValue": 0,
              "GroupName": "",
              "ExtensionProperties": [],
              "ProductId": 0,
              "CatalogId": 0
            },
            {
              "ValueString": "Microsoft.Dynamics.Commerce.Runtime.DataModel.RichMediaLocations",
              "PropertyTypeValue": 41,
              "KeyName": "Image2",
              "FriendlyName": "Image",
              "RecordId": 11290923653,
              "IsDimensionProperty": false,
              "AttributeValueId": 41290968079,
              "UnitText": null,
              "GroupId": 0,
              "GroupTypeValue": 0,
              "GroupName": "",
              "ExtensionProperties": [],
              "ProductId": 0,
              "CatalogId": 0
            },
            {
              "ValueString": "Microsoft.Dynamics.Commerce.Runtime.DataModel.RichMediaLocations",
              "PropertyTypeValue": 41,
              "KeyName": "Image",
              "FriendlyName": "Image",
              "RecordId": 11290923668,
              "IsDimensionProperty": false,
              "AttributeValueId": 41290968079,
              "UnitText": null,
              "GroupId": 0,
              "GroupTypeValue": 0,
              "GroupName": "",
              "ExtensionProperties": [],
              "ProductId": 0,
              "CatalogId": 0
            }
          ]
        }
      ],
      "CompositionInformation": null,
      "ParentKits": [],
      "SearchName": "SlateCheeseBoard",
      "ExtensionProperties": []
    },
    {
      "RecordId": 68719483124,
      "ProductName": "Blue & White 16 Piece Dinnerware Set",
      "ProductNumber": "9727777314",
      "Description": "Blue & White 16 Piece Dinnerware Set",
      "IsMasterProduct": false,
      "IsKit": false,
      "ItemId": "9727777314",
      "HasLinkedProducts": false,
      "Rules": {
        "HasLinkedProducts": false,
        "IsSerialized": false,
        "IsActiveInSalesProcess": false,
        "IsBlocked": false,
        "DateOfBlocking": "1900-01-01T00:00:00Z",
        "DateToActivate": "1900-01-01T00:00:00Z",
        "DateToBlock": "9999-12-31T23:59:59.9999999Z",
        "DefaultUnitOfMeasure": "ea",
        "PriceKeyingRequirementValue": 0,
        "QuantityKeyingRequirementValue": 0,
        "MustKeyInComment": false,
        "CanQuantityBecomeNegative": false,
        "MustScaleItem": false,
        "CanPriceBeZero": false,
        "ProductId": 68719483124,
        "ExtensionProperties": []
      },
      "DefaultUnitOfMeasure": null,
      "Name": null,
      "Locale": "en-us",
      "OfflineImage": "",
      "IsRemote": false,
      "ChangeTrackingInformation": {
        "ModifiedDateTime": "1901-01-01T00:00:00Z",
        "ChangeActionValue": 1,
        "RequestedActionValue": 1
      },
      "Image": {
        "Items": [
          {
            "Url": "Products/9727777314_000_001.png",
            "AltText": "",
            "IsSelfHosted": false,
            "IsDefault": false
          },
          {
            "Url": "Products/9727777314_000_002.png",
            "AltText": "",
            "IsSelfHosted": false,
            "IsDefault": false
          },
          {
            "Url": "Products/9727777314_000_003.png",
            "AltText": "",
            "IsSelfHosted": false,
            "IsDefault": false
          },
          {
            "Url": "Products/9727777314_000_004.png",
            "AltText": "",
            "IsSelfHosted": false,
            "IsDefault": false
          },
          {
            "Url": "Products/9727777314_000_005.png",
            "AltText": "",
            "IsSelfHosted": false,
            "IsDefault": false
          }
        ]
      },
      "UnitsOfMeasureSymbol": [],
      "LinkedProducts": [],
      "BasePrice": 51.28,
      "Price": 51.28,
      "AdjustedPrice": 51.28,
      "RetailContext": {
        "ChannelId": 68719476778,
        "CatalogId": 0
      },
      "PrimaryCategoryId": 0,
      "CategoryIds": [],
      "RelatedProducts": [],
      "ProductsRelatedToThis": [],
      "ProductSchema": [
        "Brand",
        "ItemNumber",
        "ProductName",
        "Description",
        "Features",
        "Specification",
        "Searchkeywords2",
        "SearchKeywords",
        "Image2",
        "Image"
      ],
      "ProductProperties": [
        {
          "TranslationLanguage": "en-us",
          "TranslatedProperties": [
            {
              "ValueString": "Gibson Home",
              "PropertyTypeValue": 5,
              "KeyName": "Brand",
              "FriendlyName": "Brand",
              "RecordId": 11290923677,
              "IsDimensionProperty": false,
              "AttributeValueId": 68719500955,
              "UnitText": null,
              "GroupId": 0,
              "GroupTypeValue": 0,
              "GroupName": "",
              "ExtensionProperties": [],
              "ProductId": 68719483124,
              "CatalogId": 0
            },
            {
              "ValueString": "9727777314",
              "PropertyTypeValue": 5,
              "KeyName": "ItemNumber",
              "FriendlyName": "Item number",
              "RecordId": 11290923665,
              "IsDimensionProperty": false,
              "AttributeValueId": 0,
              "UnitText": null,
              "GroupId": 0,
              "GroupTypeValue": 0,
              "GroupName": "",
              "ExtensionProperties": [],
              "ProductId": 68719483124,
              "CatalogId": 0
            },
            {
              "ValueString": "Blue & White 16 Piece Dinnerware Set",
              "PropertyTypeValue": 5,
              "KeyName": "ProductName",
              "FriendlyName": "Product name",
              "RecordId": 11290923663,
              "IsDimensionProperty": false,
              "AttributeValueId": 0,
              "UnitText": null,
              "GroupId": 0,
              "GroupTypeValue": 0,
              "GroupName": "",
              "ExtensionProperties": [],
              "ProductId": 68719483124,
              "CatalogId": 0
            },
            {
              "ValueString": "Blue & White 16 Piece Dinnerware Set",
              "PropertyTypeValue": 5,
              "KeyName": "Description",
              "FriendlyName": "Description",
              "RecordId": 11290923664,
              "IsDimensionProperty": false,
              "AttributeValueId": 0,
              "UnitText": null,
              "GroupId": 0,
              "GroupTypeValue": 0,
              "GroupName": "",
              "ExtensionProperties": [],
              "ProductId": 68719483124,
              "CatalogId": 0
            },
            {
              "ValueString": "Default",
              "PropertyTypeValue": 5,
              "KeyName": "Features",
              "FriendlyName": "Features",
              "RecordId": 11290923666,
              "IsDimensionProperty": false,
              "AttributeValueId": 41290974841,
              "UnitText": null,
              "GroupId": 0,
              "GroupTypeValue": 0,
              "GroupName": "",
              "ExtensionProperties": [],
              "ProductId": 0,
              "CatalogId": 0
            },
            {
              "ValueString": "Default",
              "PropertyTypeValue": 5,
              "KeyName": "Specification",
              "FriendlyName": "Specification",
              "RecordId": 11290923667,
              "IsDimensionProperty": false,
              "AttributeValueId": 41290974916,
              "UnitText": null,
              "GroupId": 0,
              "GroupTypeValue": 0,
              "GroupName": "",
              "ExtensionProperties": [],
              "ProductId": 0,
              "CatalogId": 0
            },
            {
              "ValueString": "Default",
              "PropertyTypeValue": 5,
              "KeyName": "Searchkeywords2",
              "FriendlyName": "Search keywords",
              "RecordId": 11290928323,
              "IsDimensionProperty": false,
              "AttributeValueId": 41290974912,
              "UnitText": null,
              "GroupId": 0,
              "GroupTypeValue": 0,
              "GroupName": "",
              "ExtensionProperties": [],
              "ProductId": 0,
              "CatalogId": 0
            },
            {
              "ValueString": "Default",
              "PropertyTypeValue": 5,
              "KeyName": "SearchKeywords",
              "FriendlyName": "Search keywords",
              "RecordId": 11290928324,
              "IsDimensionProperty": false,
              "AttributeValueId": 41290974912,
              "UnitText": null,
              "GroupId": 0,
              "GroupTypeValue": 0,
              "GroupName": "",
              "ExtensionProperties": [],
              "ProductId": 0,
              "CatalogId": 0
            },
            {
              "ValueString": "Microsoft.Dynamics.Commerce.Runtime.DataModel.RichMediaLocations",
              "PropertyTypeValue": 41,
              "KeyName": "Image2",
              "FriendlyName": "Image",
              "RecordId": 11290923653,
              "IsDimensionProperty": false,
              "AttributeValueId": 41290968079,
              "UnitText": null,
              "GroupId": 0,
              "GroupTypeValue": 0,
              "GroupName": "",
              "ExtensionProperties": [],
              "ProductId": 0,
              "CatalogId": 0
            },
            {
              "ValueString": "Microsoft.Dynamics.Commerce.Runtime.DataModel.RichMediaLocations",
              "PropertyTypeValue": 41,
              "KeyName": "Image",
              "FriendlyName": "Image",
              "RecordId": 11290923668,
              "IsDimensionProperty": false,
              "AttributeValueId": 41290968079,
              "UnitText": null,
              "GroupId": 0,
              "GroupTypeValue": 0,
              "GroupName": "",
              "ExtensionProperties": [],
              "ProductId": 0,
              "CatalogId": 0
            }
          ]
        }
      ],
      "CompositionInformation": null,
      "ParentKits": [],
      "SearchName": "Blue&White16PieceDin",
      "ExtensionProperties": []
    }
  ]
}